lab4/bitonic_sort_16.vcd
$date
	Wed Mar 20 02:40:28 2019
$end

$version
	Synopsys VCS version K-2015.09_Full64
$end

$timescale
	1ps
$end

$comment Csum: 1 470d677f2b0f00fc $end


$scope module bitonic_sort_tb $end
$var reg 1 ! raw_in [0] $end
$var reg 1 " raw_in [1] $end
$var reg 1 # raw_in [2] $end
$var reg 1 $ raw_in [3] $end
$var reg 1 % raw_in [4] $end
$var reg 1 & raw_in [5] $end
$var reg 1 ' raw_in [6] $end
$var reg 1 ( raw_in [7] $end
$var reg 1 ) raw_in [8] $end
$var reg 1 * raw_in [9] $end
$var reg 1 + raw_in [10] $end
$var reg 1 , raw_in [11] $end
$var reg 1 - raw_in [12] $end
$var reg 1 . raw_in [13] $end
$var reg 1 / raw_in [14] $end
$var reg 1 0 raw_in [15] $end
$var wire 16 1 sorted_out [0:15] $end

$scope module DUT $end
$var wire 16 1 sorted_out [15:0] $end
$var wire 1 ! raw_in [15] $end
$var wire 1 " raw_in [14] $end
$var wire 1 # raw_in [13] $end
$var wire 1 $ raw_in [12] $end
$var wire 1 % raw_in [11] $end
$var wire 1 & raw_in [10] $end
$var wire 1 ' raw_in [9] $end
$var wire 1 ( raw_in [8] $end
$var wire 1 ) raw_in [7] $end
$var wire 1 * raw_in [6] $end
$var wire 1 + raw_in [5] $end
$var wire 1 , raw_in [4] $end
$var wire 1 - raw_in [3] $end
$var wire 1 . raw_in [2] $end
$var wire 1 / raw_in [1] $end
$var wire 1 0 raw_in [0] $end
$var wire 16 1 temp [15:0] $end
$var wire 1 2 temp_out1 $end
$var wire 1 3 temp_out2 $end

$scope module B18 $end
$var wire 1 4 in1 $end
$var wire 1 5 in2 $end
$var wire 1 6 in3 $end
$var wire 1 7 in4 $end
$var wire 1 8 in5 $end
$var wire 1 9 in6 $end
$var wire 1 : in7 $end
$var wire 1 ; in8 $end
$var wire 1 < out1 $end
$var wire 1 = out2 $end
$var wire 1 > out3 $end
$var wire 1 ? out4 $end
$var wire 1 @ out5 $end
$var wire 1 A out6 $end
$var wire 1 B out7 $end
$var wire 1 C out8 $end
$var wire 8 D temp [7:0] $end
$var wire 1 E temp_out1 $end
$var wire 1 F temp_out2 $end

$scope module B14 $end
$var wire 1 4 in1 $end
$var wire 1 5 in2 $end
$var wire 1 6 in3 $end
$var wire 1 7 in4 $end
$var wire 1 G out1 $end
$var wire 1 H out2 $end
$var wire 1 I out3 $end
$var wire 1 J out4 $end
$var wire 4 K temp [3:0] $end
$var wire 1 L temp_out1 $end
$var wire 1 M temp_out2 $end

$scope module B12 $end
$var wire 1 4 in1 $end
$var wire 1 5 in2 $end
$var wire 1 N out1 $end
$var wire 1 O out2 $end
$upscope $end


$scope module B22 $end
$var wire 1 6 in1 $end
$var wire 1 7 in2 $end
$var wire 1 P out1 $end
$var wire 1 Q out2 $end
$upscope $end


$scope module substage[0].group[0].sort[0].B23 $end
$var wire 1 R in1 $end
$var wire 1 S in2 $end
$var wire 1 L out1 $end
$var wire 1 M out2 $end
$upscope $end


$scope module substage[0].group[0].sort[1].B23 $end
$var wire 1 S in1 $end
$var wire 1 T in2 $end
$var wire 1 L out1 $end
$var wire 1 M out2 $end
$upscope $end


$scope module substage[1].group[0].sort[0].B23 $end
$var wire 1 R in1 $end
$var wire 1 R in2 $end
$var wire 1 L out1 $end
$var wire 1 M out2 $end
$upscope $end


$scope module substage[1].group[0].sort[1].B23 $end
$var wire 1 S in1 $end
$var wire 1 S in2 $end
$var wire 1 L out1 $end
$var wire 1 M out2 $end
$upscope $end


$scope module substage[1].group[2].sort[2].B23 $end
$var wire 1 T in1 $end
$var wire 1 T in2 $end
$var wire 1 L out1 $end
$var wire 1 M out2 $end
$upscope $end


$scope module substage[1].group[2].sort[3].B23 $end
$var wire 1 U in1 $end
$var wire 1 U in2 $end
$var wire 1 L out1 $end
$var wire 1 M out2 $end
$upscope $end

$upscope $end


$scope module B24 $end
$var wire 1 8 in1 $end
$var wire 1 9 in2 $end
$var wire 1 : in3 $end
$var wire 1 ; in4 $end
$var wire 1 V out1 $end
$var wire 1 W out2 $end
$var wire 1 X out3 $end
$var wire 1 Y out4 $end
$var wire 4 Z temp [3:0] $end
$var wire 1 [ temp_out1 $end
$var wire 1 \ temp_out2 $end

$scope module B12 $end
$var wire 1 8 in1 $end
$var wire 1 9 in2 $end
$var wire 1 ] out1 $end
$var wire 1 ^ out2 $end
$upscope $end


$scope module B22 $end
$var wire 1 : in1 $end
$var wire 1 ; in2 $end
$var wire 1 _ out1 $end
$var wire 1 ` out2 $end
$upscope $end


$scope module substage[0].group[0].sort[0].B23 $end
$var wire 1 a in1 $end
$var wire 1 b in2 $end
$var wire 1 [ out1 $end
$var wire 1 \ out2 $end
$upscope $end


$scope module substage[0].group[0].sort[1].B23 $end
$var wire 1 b in1 $end
$var wire 1 c in2 $end
$var wire 1 [ out1 $end
$var wire 1 \ out2 $end
$upscope $end


$scope module substage[1].group[0].sort[0].B23 $end
$var wire 1 a in1 $end
$var wire 1 a in2 $end
$var wire 1 [ out1 $end
$var wire 1 \ out2 $end
$upscope $end


$scope module substage[1].group[0].sort[1].B23 $end
$var wire 1 b in1 $end
$var wire 1 b in2 $end
$var wire 1 [ out1 $end
$var wire 1 \ out2 $end
$upscope $end


$scope module substage[1].group[2].sort[2].B23 $end
$var wire 1 c in1 $end
$var wire 1 c in2 $end
$var wire 1 [ out1 $end
$var wire 1 \ out2 $end
$upscope $end


$scope module substage[1].group[2].sort[3].B23 $end
$var wire 1 d in1 $end
$var wire 1 d in2 $end
$var wire 1 [ out1 $end
$var wire 1 \ out2 $end
$upscope $end

$upscope $end


$scope module substage[0].group[0].sort[0].B21 $end
$var wire 1 e in1 $end
$var wire 1 f in2 $end
$var wire 1 E out1 $end
$var wire 1 F out2 $end
$upscope $end


$scope module substage[0].group[0].sort[1].B21 $end
$var wire 1 g in1 $end
$var wire 1 h in2 $end
$var wire 1 E out1 $end
$var wire 1 F out2 $end
$upscope $end


$scope module substage[0].group[0].sort[2].B21 $end
$var wire 1 i in1 $end
$var wire 1 j in2 $end
$var wire 1 E out1 $end
$var wire 1 F out2 $end
$upscope $end


$scope module substage[0].group[0].sort[3].B21 $end
$var wire 1 f in1 $end
$var wire 1 k in2 $end
$var wire 1 E out1 $end
$var wire 1 F out2 $end
$upscope $end


$scope module substage[1].group[0].sort[0].B21 $end
$var wire 1 e in1 $end
$var wire 1 g in2 $end
$var wire 1 E out1 $end
$var wire 1 F out2 $end
$upscope $end


$scope module substage[1].group[0].sort[1].B21 $end
$var wire 1 g in1 $end
$var wire 1 i in2 $end
$var wire 1 E out1 $end
$var wire 1 F out2 $end
$upscope $end


$scope module substage[1].group[4].sort[4].B21 $end
$var wire 1 h in1 $end
$var wire 1 j in2 $end
$var wire 1 E out1 $end
$var wire 1 F out2 $end
$upscope $end


$scope module substage[1].group[4].sort[5].B21 $end
$var wire 1 j in1 $end
$var wire 1 k in2 $end
$var wire 1 E out1 $end
$var wire 1 F out2 $end
$upscope $end


$scope module substage[2].group[0].sort[0].B21 $end
$var wire 1 e in1 $end
$var wire 1 e in2 $end
$var wire 1 E out1 $end
$var wire 1 F out2 $end
$upscope $end


$scope module substage[2].group[2].sort[2].B21 $end
$var wire 1 i in1 $end
$var wire 1 i in2 $end
$var wire 1 E out1 $end
$var wire 1 F out2 $end
$upscope $end


$scope module substage[2].group[4].sort[4].B21 $end
$var wire 1 h in1 $end
$var wire 1 h in2 $end
$var wire 1 E out1 $end
$var wire 1 F out2 $end
$upscope $end


$scope module substage[2].group[6].sort[6].B21 $end
$var wire 1 k in1 $end
$var wire 1 k in2 $end
$var wire 1 E out1 $end
$var wire 1 F out2 $end
$upscope $end

$upscope $end


$scope module B28 $end
$var wire 1 l in1 $end
$var wire 1 m in2 $end
$var wire 1 n in3 $end
$var wire 1 o in4 $end
$var wire 1 p in5 $end
$var wire 1 q in6 $end
$var wire 1 r in7 $end
$var wire 1 s in8 $end
$var wire 1 t out1 $end
$var wire 1 u out2 $end
$var wire 1 v out3 $end
$var wire 1 w out4 $end
$var wire 1 x out5 $end
$var wire 1 y out6 $end
$var wire 1 z out7 $end
$var wire 1 { out8 $end
$var wire 8 | temp [7:0] $end
$var wire 1 } temp_out1 $end
$var wire 1 ~ temp_out2 $end

$scope module B14 $end
$var wire 1 l in1 $end
$var wire 1 m in2 $end
$var wire 1 n in3 $end
$var wire 1 o in4 $end
$var wire 1 "! out1 $end
$var wire 1 "" out2 $end
$var wire 1 "# out3 $end
$var wire 1 "$ out4 $end
$var wire 4 "% temp [3:0] $end
$var wire 1 "& temp_out1 $end
$var wire 1 "' temp_out2 $end

$scope module B12 $end
$var wire 1 l in1 $end
$var wire 1 m in2 $end
$var wire 1 "( out1 $end
$var wire 1 ") out2 $end
$upscope $end


$scope module B22 $end
$var wire 1 n in1 $end
$var wire 1 o in2 $end
$var wire 1 "* out1 $end
$var wire 1 "+ out2 $end
$upscope $end


$scope module substage[0].group[0].sort[0].B23 $end
$var wire 1 ", in1 $end
$var wire 1 "- in2 $end
$var wire 1 "& out1 $end
$var wire 1 "' out2 $end
$upscope $end


$scope module substage[0].group[0].sort[1].B23 $end
$var wire 1 "- in1 $end
$var wire 1 ". in2 $end
$var wire 1 "& out1 $end
$var wire 1 "' out2 $end
$upscope $end


$scope module substage[1].group[0].sort[0].B23 $end
$var wire 1 ", in1 $end
$var wire 1 ", in2 $end
$var wire 1 "& out1 $end
$var wire 1 "' out2 $end
$upscope $end


$scope module substage[1].group[0].sort[1].B23 $end
$var wire 1 "- in1 $end
$var wire 1 "- in2 $end
$var wire 1 "& out1 $end
$var wire 1 "' out2 $end
$upscope $end


$scope module substage[1].group[2].sort[2].B23 $end
$var wire 1 ". in1 $end
$var wire 1 ". in2 $end
$var wire 1 "& out1 $end
$var wire 1 "' out2 $end
$upscope $end


$scope module substage[1].group[2].sort[3].B23 $end
$var wire 1 "/ in1 $end
$var wire 1 "/ in2 $end
$var wire 1 "& out1 $end
$var wire 1 "' out2 $end
$upscope $end

$upscope $end


$scope module B24 $end
$var wire 1 p in1 $end
$var wire 1 q in2 $end
$var wire 1 r in3 $end
$var wire 1 s in4 $end
$var wire 1 "0 out1 $end
$var wire 1 "1 out2 $end
$var wire 1 "2 out3 $end
$var wire 1 "3 out4 $end
$var wire 4 "4 temp [3:0] $end
$var wire 1 "5 temp_out1 $end
$var wire 1 "6 temp_out2 $end

$scope module B12 $end
$var wire 1 p in1 $end
$var wire 1 q in2 $end
$var wire 1 "7 out1 $end
$var wire 1 "8 out2 $end
$upscope $end


$scope module B22 $end
$var wire 1 r in1 $end
$var wire 1 s in2 $end
$var wire 1 "9 out1 $end
$var wire 1 ": out2 $end
$upscope $end


$scope module substage[0].group[0].sort[0].B23 $end
$var wire 1 "; in1 $end
$var wire 1 "< in2 $end
$var wire 1 "5 out1 $end
$var wire 1 "6 out2 $end
$upscope $end


$scope module substage[0].group[0].sort[1].B23 $end
$var wire 1 "< in1 $end
$var wire 1 "= in2 $end
$var wire 1 "5 out1 $end
$var wire 1 "6 out2 $end
$upscope $end


$scope module substage[1].group[0].sort[0].B23 $end
$var wire 1 "; in1 $end
$var wire 1 "; in2 $end
$var wire 1 "5 out1 $end
$var wire 1 "6 out2 $end
$upscope $end


$scope module substage[1].group[0].sort[1].B23 $end
$var wire 1 "< in1 $end
$var wire 1 "< in2 $end
$var wire 1 "5 out1 $end
$var wire 1 "6 out2 $end
$upscope $end


$scope module substage[1].group[2].sort[2].B23 $end
$var wire 1 "= in1 $end
$var wire 1 "= in2 $end
$var wire 1 "5 out1 $end
$var wire 1 "6 out2 $end
$upscope $end


$scope module substage[1].group[2].sort[3].B23 $end
$var wire 1 "> in1 $end
$var wire 1 "> in2 $end
$var wire 1 "5 out1 $end
$var wire 1 "6 out2 $end
$upscope $end

$upscope $end


$scope module substage[0].group[0].sort[0].B21 $end
$var wire 1 "? in1 $end
$var wire 1 "@ in2 $end
$var wire 1 } out1 $end
$var wire 1 ~ out2 $end
$upscope $end


$scope module substage[0].group[0].sort[1].B21 $end
$var wire 1 "A in1 $end
$var wire 1 "B in2 $end
$var wire 1 } out1 $end
$var wire 1 ~ out2 $end
$upscope $end


$scope module substage[0].group[0].sort[2].B21 $end
$var wire 1 "C in1 $end
$var wire 1 "D in2 $end
$var wire 1 } out1 $end
$var wire 1 ~ out2 $end
$upscope $end


$scope module substage[0].group[0].sort[3].B21 $end
$var wire 1 "@ in1 $end
$var wire 1 "E in2 $end
$var wire 1 } out1 $end
$var wire 1 ~ out2 $end
$upscope $end


$scope module substage[1].group[0].sort[0].B21 $end
$var wire 1 "? in1 $end
$var wire 1 "A in2 $end
$var wire 1 } out1 $end
$var wire 1 ~ out2 $end
$upscope $end


$scope module substage[1].group[0].sort[1].B21 $end
$var wire 1 "A in1 $end
$var wire 1 "C in2 $end
$var wire 1 } out1 $end
$var wire 1 ~ out2 $end
$upscope $end


$scope module substage[1].group[4].sort[4].B21 $end
$var wire 1 "B in1 $end
$var wire 1 "D in2 $end
$var wire 1 } out1 $end
$var wire 1 ~ out2 $end
$upscope $end


$scope module substage[1].group[4].sort[5].B21 $end
$var wire 1 "D in1 $end
$var wire 1 "E in2 $end
$var wire 1 } out1 $end
$var wire 1 ~ out2 $end
$upscope $end


$scope module substage[2].group[0].sort[0].B21 $end
$var wire 1 "? in1 $end
$var wire 1 "? in2 $end
$var wire 1 } out1 $end
$var wire 1 ~ out2 $end
$upscope $end


$scope module substage[2].group[2].sort[2].B21 $end
$var wire 1 "C in1 $end
$var wire 1 "C in2 $end
$var wire 1 } out1 $end
$var wire 1 ~ out2 $end
$upscope $end


$scope module substage[2].group[4].sort[4].B21 $end
$var wire 1 "B in1 $end
$var wire 1 "B in2 $end
$var wire 1 } out1 $end
$var wire 1 ~ out2 $end
$upscope $end


$scope module substage[2].group[6].sort[6].B21 $end
$var wire 1 "E in1 $end
$var wire 1 "E in2 $end
$var wire 1 } out1 $end
$var wire 1 ~ out2 $end
$upscope $end

$upscope $end


$scope module substage[0].group[0].sort[0].B21 $end
$var wire 1 "F in1 $end
$var wire 1 "G in2 $end
$var wire 1 2 out1 $end
$var wire 1 3 out2 $end
$upscope $end


$scope module substage[0].group[0].sort[1].B21 $end
$var wire 1 "H in1 $end
$var wire 1 "I in2 $end
$var wire 1 2 out1 $end
$var wire 1 3 out2 $end
$upscope $end


$scope module substage[0].group[0].sort[2].B21 $end
$var wire 1 "J in1 $end
$var wire 1 "K in2 $end
$var wire 1 2 out1 $end
$var wire 1 3 out2 $end
$upscope $end


$scope module substage[0].group[0].sort[3].B21 $end
$var wire 1 "L in1 $end
$var wire 1 "M in2 $end
$var wire 1 2 out1 $end
$var wire 1 3 out2 $end
$upscope $end


$scope module substage[0].group[0].sort[4].B21 $end
$var wire 1 "N in1 $end
$var wire 1 "O in2 $end
$var wire 1 2 out1 $end
$var wire 1 3 out2 $end
$upscope $end


$scope module substage[0].group[0].sort[5].B21 $end
$var wire 1 "P in1 $end
$var wire 1 "Q in2 $end
$var wire 1 2 out1 $end
$var wire 1 3 out2 $end
$upscope $end


$scope module substage[0].group[0].sort[6].B21 $end
$var wire 1 "R in1 $end
$var wire 1 "S in2 $end
$var wire 1 2 out1 $end
$var wire 1 3 out2 $end
$upscope $end


$scope module substage[0].group[0].sort[7].B21 $end
$var wire 1 "G in1 $end
$var wire 1 "T in2 $end
$var wire 1 2 out1 $end
$var wire 1 3 out2 $end
$upscope $end


$scope module substage[1].group[0].sort[0].B21 $end
$var wire 1 "F in1 $end
$var wire 1 "L in2 $end
$var wire 1 2 out1 $end
$var wire 1 3 out2 $end
$upscope $end


$scope module substage[1].group[0].sort[1].B21 $end
$var wire 1 "H in1 $end
$var wire 1 "N in2 $end
$var wire 1 2 out1 $end
$var wire 1 3 out2 $end
$upscope $end


$scope module substage[1].group[0].sort[2].B21 $end
$var wire 1 "J in1 $end
$var wire 1 "P in2 $end
$var wire 1 2 out1 $end
$var wire 1 3 out2 $end
$upscope $end


$scope module substage[1].group[0].sort[3].B21 $end
$var wire 1 "L in1 $end
$var wire 1 "R in2 $end
$var wire 1 2 out1 $end
$var wire 1 3 out2 $end
$upscope $end


$scope module substage[1].group[8].sort[8].B21 $end
$var wire 1 "I in1 $end
$var wire 1 "O in2 $end
$var wire 1 2 out1 $end
$var wire 1 3 out2 $end
$upscope $end


$scope module substage[1].group[8].sort[9].B21 $end
$var wire 1 "K in1 $end
$var wire 1 "Q in2 $end
$var wire 1 2 out1 $end
$var wire 1 3 out2 $end
$upscope $end


$scope module substage[1].group[8].sort[10].B21 $end
$var wire 1 "M in1 $end
$var wire 1 "S in2 $end
$var wire 1 2 out1 $end
$var wire 1 3 out2 $end
$upscope $end


$scope module substage[1].group[8].sort[11].B21 $end
$var wire 1 "O in1 $end
$var wire 1 "T in2 $end
$var wire 1 2 out1 $end
$var wire 1 3 out2 $end
$upscope $end


$scope module substage[2].group[0].sort[0].B21 $end
$var wire 1 "F in1 $end
$var wire 1 "H in2 $end
$var wire 1 2 out1 $end
$var wire 1 3 out2 $end
$upscope $end


$scope module substage[2].group[0].sort[1].B21 $end
$var wire 1 "H in1 $end
$var wire 1 "J in2 $end
$var wire 1 2 out1 $end
$var wire 1 3 out2 $end
$upscope $end


$scope module substage[2].group[4].sort[4].B21 $end
$var wire 1 "N in1 $end
$var wire 1 "P in2 $end
$var wire 1 2 out1 $end
$var wire 1 3 out2 $end
$upscope $end


$scope module substage[2].group[4].sort[5].B21 $end
$var wire 1 "P in1 $end
$var wire 1 "R in2 $end
$var wire 1 2 out1 $end
$var wire 1 3 out2 $end
$upscope $end


$scope module substage[2].group[8].sort[8].B21 $end
$var wire 1 "I in1 $end
$var wire 1 "K in2 $end
$var wire 1 2 out1 $end
$var wire 1 3 out2 $end
$upscope $end


$scope module substage[2].group[8].sort[9].B21 $end
$var wire 1 "K in1 $end
$var wire 1 "M in2 $end
$var wire 1 2 out1 $end
$var wire 1 3 out2 $end
$upscope $end


$scope module substage[2].group[12].sort[12].B21 $end
$var wire 1 "Q in1 $end
$var wire 1 "S in2 $end
$var wire 1 2 out1 $end
$var wire 1 3 out2 $end
$upscope $end


$scope module substage[2].group[12].sort[13].B21 $end
$var wire 1 "S in1 $end
$var wire 1 "T in2 $end
$var wire 1 2 out1 $end
$var wire 1 3 out2 $end
$upscope $end


$scope module substage[3].group[0].sort[0].B21 $end
$var wire 1 "F in1 $end
$var wire 1 "F in2 $end
$var wire 1 2 out1 $end
$var wire 1 3 out2 $end
$upscope $end


$scope module substage[3].group[2].sort[2].B21 $end
$var wire 1 "J in1 $end
$var wire 1 "J in2 $end
$var wire 1 2 out1 $end
$var wire 1 3 out2 $end
$upscope $end


$scope module substage[3].group[4].sort[4].B21 $end
$var wire 1 "N in1 $end
$var wire 1 "N in2 $end
$var wire 1 2 out1 $end
$var wire 1 3 out2 $end
$upscope $end


$scope module substage[3].group[6].sort[6].B21 $end
$var wire 1 "R in1 $end
$var wire 1 "R in2 $end
$var wire 1 2 out1 $end
$var wire 1 3 out2 $end
$upscope $end


$scope module substage[3].group[8].sort[8].B21 $end
$var wire 1 "I in1 $end
$var wire 1 "I in2 $end
$var wire 1 2 out1 $end
$var wire 1 3 out2 $end
$upscope $end


$scope module substage[3].group[10].sort[10].B21 $end
$var wire 1 "M in1 $end
$var wire 1 "M in2 $end
$var wire 1 2 out1 $end
$var wire 1 3 out2 $end
$upscope $end


$scope module substage[3].group[12].sort[12].B21 $end
$var wire 1 "Q in1 $end
$var wire 1 "Q in2 $end
$var wire 1 2 out1 $end
$var wire 1 3 out2 $end
$upscope $end


$scope module substage[3].group[14].sort[14].B21 $end
$var wire 1 "T in1 $end
$var wire 1 "T in2 $end
$var wire 1 2 out1 $end
$var wire 1 3 out2 $end
$upscope $end

$upscope $end

$upscope $end

$enddefinitions $end

#0
$dumpvars
1!
1+
1,
1-
1.
1/
10
1"
1#
1$
1%
1&
1'
1(
1)
1*
xS
xR
xT
xU
xN
xO
xP
xQ
xL
xM
bxxxx K
xb
xa
xc
xd
x]
x^
x_
x`
x[
x\
bxxxx Z
x"-
x",
x".
x"/
x"(
x")
x"*
x"+
x"&
x"'
bxxxx "%
x"<
x";
x"=
x">
x"7
x"8
x"9
x":
x"5
x"6
bxxxx "4
bxxxxxxxxxxxxxxxx 1
x2
x3
x=
x?
xA
xC
xu
xw
xy
x{
14
15
16
17
18
19
1:
1;
1l
1m
1n
1o
1p
1q
1r
1s
x>
x@
xB
xt
xv
xx
xz
x"F
x"G
x"H
x"I
x"J
x"K
x"L
x"M
x"N
x"O
x"P
x"Q
x"R
x"S
x"T
xe
xf
xg
xh
xi
xj
xk
x<
x"?
x"@
x"A
x"B
x"C
x"D
x"E
bxxxxxxxx D
xH
xJ
xW
xY
xX
xE
xF
xG
xI
xV
bxxxxxxxx |
x""
x"$
x"1
x"3
x"2
x}
x~
x"!
x"#
x"0
$end
#5000
0"
05
#7000
0.
0q
#10000
0&
09
#11000
0-
0p
#15000
0%
08
#17000
0(
0;
#20000
0$
07
#21000
00
0s
#26000
0+
0n
#30000
0#
06
#35000
0)
0l
#37000
0,
0o
#40000
0/
0r
#41000
0!
04
#43000
0'
0:
#44000
0*
0m
#54000
1!
14
1"
15
1#
16
1$
17
1%
18
1&
19
1'
1:
1(
1;
1)
1l
1*
1m
1+
1n
1,
1o
1-
1p
1.
1q
1/
1r
10
1s
